[
    {
        "name":"pillow",
        "price":150,
        "url":"../public/product1.jpg",
        "article":"e0193972",
        "color":"blue"
    },
    {
        "name":"vase",
        "price":150,
        "url":"../public/product2.jpg",
        "article":"a0453972",
        "color":"blue"
    },
    {
        "name":"table",
        "price":250,
        "url":"../public/product3.jpg",
        "article":"b0454962",
        "color":"wood"
    },
    {
        "name":"picture",
        "price":350,
        "url":"../public/product4.jpg",
        "article":"c1463972",
        "color":"grey"
    },
    {
        "name":"basket",
        "price":300,
        "url":"../public/product5.jpg",
        "article":"g0459152",
        "color":"wood"
    },
    {
        "name":"mat",
        "price":400,
        "url":"../public/product6.jpg",
        "article":"a04534452",
        "color":"yellow"
    },
    {
        "name":"flowers",
        "price":100,
        "url":"../public/product7.jpg",
        "article":"z04533452",
        "color":"green"
    },
    {
        "name":"shelf",
        "price":250,
        "url":"../public/product8.jpg",
        "article":"k0486572",
        "color":"white"
    },
    {
        "name":"bath",
        "price":150,
        "url":"../public/product9.jpg",
        "article":"m0016972",
        "color":"white"
    },
    {
        "name":"lighter",
        "price":150,
        "url":"../public/product10.jpg",
        "article":"lelf53972",
        "color":"white"
    }
    ]